{"data":[{"id":17,"documentId":"i6q3quo8k0ggi9e72bbnx21n","name":"boot armel","description":null,"price_display":"55d","active":true,"colors":"","tryon_settings":null,"foot_type":"both","slug":null,"createdAt":"2026-02-21T01:00:05.455Z","updatedAt":"2026-02-21T01:40:04.466Z","publishedAt":"2026-02-22T06:56:59.006Z","sizes":null,"old_price":"85 DT"},{"id":19,"documentId":"t8p4tkuvgsucax2vt0ambu9f","name":"boot osshoes","description":null,"price_display":"55D","active":true,"colors":null,"tryon_settings":null,"foot_type":"both","slug":null,"createdAt":"2026-02-21T01:00:56.986Z","updatedAt":"2026-02-21T01:39:45.888Z","publishedAt":"2026-02-22T06:56:59.013Z","sizes":null,"old_price":"75 DT"},{"id":21,"documentId":"t8p4tkuvgsucax2vt0ambu9f","name":"boot osshoes","description":null,"price_display":"55D","active":true,"colors":null,"tryon_settings":null,"foot_type":"both","slug":null,"createdAt":"2026-02-21T01:00:56.986Z","updatedAt":"2026-02-21T01:39:45.888Z","publishedAt":"2026-02-21T01:39:45.918Z","sizes":null,"old_price":null},{"id":22,"documentId":"i6q3quo8k0ggi9e72bbnx21n","name":"boot armel","description":null,"price_display":"55d","active":true,"colors":"","tryon_settings":null,"foot_type":"both","slug":null,"createdAt":"2026-02-21T01:00:05.455Z","updatedAt":"2026-02-21T01:40:04.466Z","publishedAt":"2026-02-21T01:40:04.490Z","sizes":null,"old_price":null},{"id":31,"documentId":"qrvoimrpg1yw4dcgr5mrf4p1","name":"basket  Sneak","description":"Sneaker légère avec semelle souple, parfaite pour un style urbain tendance.","price_display":"60D","active":true,"colors":{"colors":["Noir","Gris"]},"tryon_settings":null,"foot_type":"both","slug":null,"createdAt":"2026-02-21T23:53:48.244Z","updatedAt":"2026-02-21T23:53:48.244Z","publishedAt":"2026-02-21T23:53:48.259Z","sizes":null,"old_price":null},{"id":38,"documentId":"ti3qa82je9j82wbl61lobo98","name":"basket  Sneak","description":"Sneaker minimaliste adaptée aux looks casual et streetwear.","price_display":"60D","active":true,"colors":{"colors":["Noir","Blanc"]},"tryon_settings":null,"foot_type":"both","slug":null,"createdAt":"2026-02-22T00:33:21.803Z","updatedAt":"2026-02-22T00:33:21.803Z","publishedAt":"2026-02-22T00:33:21.818Z","sizes":{"sizes":[36,37,38,39,40]},"old_price":null},{"id":40,"documentId":"xlh9yxe36kgrrs350v0mdb0f","name":"basket  Sneak","description":"Basket respirante avec amorti optimal pour un confort maximal.","price_display":"60D","active":true,"colors":{"colors":["Noir","Blanc"]},"tryon_settings":null,"foot_type":"both","slug":null,"createdAt":"2026-02-22T00:35:48.009Z","updatedAt":"2026-02-22T00:35:48.009Z","publishedAt":"2026-02-22T00:35:48.026Z","sizes":{"sizes":[36,37,38,39,40]},"old_price":null},{"id":42,"documentId":"d262hc8bzsdmq6dkxqcmzj4d","name":"basket  Sneak","description":" Modèle moderne au style dynamique et finitions soignées.","price_display":"60D","active":true,"colors":{"colors":["Blanc","noir/Beige","Beige"]},"tryon_settings":null,"foot_type":"both","slug":null,"createdAt":"2026-02-22T00:37:49.559Z","updatedAt":"2026-02-22T00:37:49.559Z","publishedAt":"2026-02-22T00:37:49.579Z","sizes":{"sizes":[36,37,38,39,40]},"old_price":null},{"id":45,"documentId":"klk9dst9b8t6tkk8gexup390","name":"basket  Sneak","description":" Basket pratique et stylée, idéale pour toutes les occasions","price_display":"60d","active":true,"colors":{"colors":["Blanc","Noir"]},"tryon_settings":null,"foot_type":"both","slug":null,"createdAt":"2026-02-22T00:42:19.574Z","updatedAt":"2026-02-22T00:56:32.661Z","publishedAt":"2026-02-22T00:56:32.682Z","sizes":{"sizes":[36,37,38,39,40]},"old_price":null},{"id":46,"documentId":"cu2yy83qpki69c8ohvwvfwxh","name":"basket  Sneak","description":"Chaussure polyvalente combinant élégance et performance.","price_display":"60D","active":true,"colors":{"colors":["Blanc","Beige","Noir"]},"tryon_settings":null,"foot_type":"both","slug":null,"createdAt":"2026-02-22T00:30:47.372Z","updatedAt":"2026-02-22T00:57:23.087Z","publishedAt":"2026-02-22T00:57:23.109Z","sizes":{"sizes":[36,37,38,39,40]},"old_price":null}],"meta":{"pagination":{"page":1,"pageSize":10,"pageCount":3,"total":29}}}